US Cyclist Data 2021 Analysis
…
#calculate No. of rides by user per day of week
tripdata_cleaned %>% 
  group_by(ride_id, weekday) %>% 
  summarise(no_of_ride=n())

## `summarise()` has grouped output by 'ride_id'. You can override using the
## `.groups` argument.

## # A tibble: 5,589,640 × 3
## # Groups:   ride_id [5,589,640]
##    ride_id          weekday no_of_ride
##    <chr>            <chr>        <int>
##  1 000002EBE159AE82 2 - Tue          1
##  2 0000080D43BAA9E4 7 - Sun          1
##  3 00000B4F1F71F9C2 3 - Wed          1
##  4 00000CAE95438C9D 2 - Tue          1
##  5 00000EBBC119168C 7 - Sun          1
##  6 000019B7F053D461 5 - Fri          1
##  7 00001A81D056B01B 3 - Wed          1
##  8 00001B4F79D102B5 3 - Wed          1
##  9 00001BEE76AB24E0 2 - Tue          1
## 10 00001DCF2BC423F4 7 - Sun          1
## # … with 5,589,630 more rows
…
#Data Distribution by hour in day
tripdata_cleaned %>%
  group_by(start_hour) %>% 
  summarise(count = length(ride_id),
            '%' = (length(ride_id) / nrow(tripdata_cleaned)) * 100,
            'members_p' = (sum(member_casual == "member") / length(ride_id)) * 100,
            'casual_p' = (sum(member_casual == "casual") / length(ride_id)) * 100,
            'member_casual_%_difer' = members_p - casual_p)

## # A tibble: 24 × 6
##    start_hour  count   `%` members_p casual_p `member_casual_%_difer`
##    <chr>       <int> <dbl>     <dbl>    <dbl>                   <dbl>
##  1 00          23067 0.413      49.2     50.8                   -1.69
##  2 01          45952 0.822      72.3     27.7                   44.6 
##  3 02         107767 1.93       77.2     22.8                   54.5 
##  4 03         186092 3.33       77.4     22.6                   54.8 
##  5 04         225470 4.03       74.1     25.9                   48.3 
##  6 05         201349 3.60       66.5     33.5                   33.1 
##  7 06         220992 3.95       59.0     41.0                   17.9 
##  8 07         275432 4.93       55.7     44.3                   11.5 
##  9 08         330887 5.92       54.1     45.9                    8.18
## 10 09         345502 6.18       51.5     48.5                    3.00
## # … with 14 more rows
…
